…
## Example

``` r
library(promedreadr)

atc_codes <- c(Quetiapin = "N05AH04",
               Lithium = "N05AN01")

product_urls <- extract_product_urls(atc_codes)
all_ade_tables <- fetch_ade_tables(product_urls)
combined_ade_tables <- reconcile_ade_tables(all_ade_tables)

combined_ade_tables
#> $Quetiapin
#> # A tibble: 65 × 2
#>    frequency                  side_effects          
#>    <fct>                      <chr>                 
#>  1 Meget almindelige (> 10 %) Anæmi                 
#>  2 Meget almindelige (> 10 %) Mundtørhed            
#>  3 Meget almindelige (> 10 %) Abstinenser*          
#>  4 Meget almindelige (> 10 %) Svimmelhed            
#>  5 Meget almindelige (> 10 %) Nedsat HDL            
#>  6 Meget almindelige (> 10 %) Vægtøgning            
#>  7 Meget almindelige (> 10 %) Hyperkolesterolæmi    
#>  8 Meget almindelige (> 10 %) Hypertriglyceridæmi   
#>  9 Meget almindelige (> 10 %) Ekstrapyramidale gener
#> 10 Meget almindelige (> 10 %) Hovedpine             
#> # … with 55 more rows
#> 
#> $Lithium
#> # A tibble: 55 × 2
#>    frequency                  side_effects               
#>    <fct>                      <chr>                      
#>  1 Meget almindelige (> 10 %) Vægtøgning                 
#>  2 Meget almindelige (> 10 %) Nefrogen diabetes insipidus
#>  3 Almindelige (1-10 %)       Hypertyroidisme            
#>  4 Almindelige (1-10 %)       Hypotyroidisme             
#>  5 Almindelige (1-10 %)       Struma                     
#>  6 Almindelige (1-10 %)       Abdominalsmerter           
#>  7 Almindelige (1-10 %)       Diarré                     
#>  8 Almindelige (1-10 %)       Kvalme                     
#>  9 Almindelige (1-10 %)       Eeg-forandringer           
#> 10 Almindelige (1-10 %)       Ekg-forandringer           
#> # … with 45 more rows
```
…
